Division,WeightClassKg,Place,Name,Team,BodyweightKg,Best3SquatKg,Best3BenchKg,Best3DeadliftKg,TotalKg,Equipment,Event,Sex
Boys,51.71,1,Hunter Harwood,Comal Canyon,47.63,124.74,61.23,120.2,306.17,Single-ply,SBD,M
Boys,51.71,2,Michael Davis #1,San Antonio East Central,50.62,102.06,58.97,120.2,281.23,Single-ply,SBD,M
Boys,51.71,3,Angel Gomez,Comal Canyon,45.36,102.06,52.16,95.25,249.48,Single-ply,SBD,M
Boys,51.71,4,Luis Rios,Geronimo Navarro,44.27,72.57,52.16,104.33,229.06,Single-ply,SBD,M
Boys,51.71,5,Michael Pavia,san marcos,45.99,74.84,47.63,95.25,217.72,Single-ply,SBD,M
Boys,51.71,6,Collin Everman,Comal Canyon,43.09,72.57,38.56,86.18,197.31,Single-ply,SBD,M
Boys,55.79,1,Austin Johnson,Bandera,53.98,154.22,106.59,149.69,410.5,Single-ply,SBD,M
Boys,55.79,DQ,Chris Jackson #7,Lockhart,55.25,,,,,Single-ply,SBD,M
Boys,55.79,3,Benito Flores,San Antonio Southside,55.43,124.74,81.65,142.88,349.27,Single-ply,SBD,M
Boys,55.79,4,Chase Allen,san marcos,54.25,104.33,81.65,113.4,299.37,Single-ply,SBD,M
Boys,55.79,DQ,Harvey Jackson,San Antonio East Central,55.79,,,,,Single-ply,SBD,M
Boys,55.79,DQ,Chris Aguilar,San Antonio Memorial,55.79,,,,,Single-ply,SBD,M
Boys,55.79,DQ,Jesus Garcia #10,Somerset,55.79,,,,,Single-ply,SBD,M
Boys,67.13,1,Jonathan Ibarra,Somerset,60.1,183.7,90.72,183.7,458.13,Single-ply,SBD,M
Boys,59.87,2,Caleb Gale,Somerset,56.52,161.03,81.65,183.7,426.38,Single-ply,SBD,M
Boys,59.87,3,Caleel Turner,Comal Canyon,58.06,158.76,74.84,163.29,396.89,Single-ply,SBD,M
Boys,67.13,4,Travis Gaffney,San Antonio East Central,60.06,151.95,81.65,154.22,387.82,Single-ply,SBD,M
Boys,67.13,5,Marc Campos,San Antonio East Central,60.06,158.76,74.84,149.69,383.29,Single-ply,SBD,M
Boys,59.87,6,Michel Classen,Buda Hays,57.52,142.88,81.65,154.22,378.75,Single-ply,SBD,M
Boys,59.87,7,Matt Rodriguez,San Antonio East Central,58.15,158.76,79.38,140.61,378.75,Single-ply,SBD,M
Boys,59.87,8,Griffin Lazarus,Austin Lake Travis,58.06,136.08,61.23,124.74,322.05,Single-ply,SBD,M
Boys,59.87,9,Jordan Murphy,Austin Lake Travis,58.97,138.35,74.84,108.86,322.05,Single-ply,SBD,M
Boys,67.13,10,Alex Cruz,San Antonio Memorial,59.96,113.4,72.57,136.08,322.05,Single-ply,SBD,M
Boys,67.13,DQ,Donald Price,San Antonio East Central,60.06,127.01,,,,Single-ply,SBD,M
Boys,59.87,DQ,Edgar Sanchez,San Antonio East Central,59.87,,,,,Single-ply,SBD,M
Boys,59.87,DQ,Daniel Kokenes,Geronimo Navarro,59.87,,,,,Single-ply,SBD,M
Boys,67.13,1,Kristian Cogdill,san marcos,65.68,210.92,117.93,201.85,530.7,Single-ply,SBD,M
Boys,67.13,2,Peter Webre,Comal Canyon,67.13,210.92,113.4,204.12,528.44,Single-ply,SBD,M
Boys,67.13,3,Feliciano Delgadillo,San Antonio Southside,66.04,197.31,102.06,163.29,462.66,Single-ply,SBD,M
Boys,67.13,4,Daniel Nieto,san marcos,66.32,161.03,120.2,174.63,455.86,Single-ply,SBD,M
Boys,67.13,5,Josh Young,Bandera,64.23,167.83,106.59,161.03,435.45,Single-ply,SBD,M
Boys,67.13,6,Hough Taylor,Buda Hays,64.23,156.49,97.52,151.95,405.97,Single-ply,SBD,M
Boys,67.13,7,Daniel Rodriguez #11,San Antonio East Central,67.13,167.83,90.72,147.42,405.97,Single-ply,SBD,M
Boys,67.13,8,Axel Gomez,Austin Lake Travis,63.78,136.08,99.79,167.83,403.7,Single-ply,SBD,M
Boys,67.13,9,Ty Henk,Comal Canyon,67.13,154.22,83.91,158.76,396.89,Single-ply,SBD,M
Boys,67.13,10,Chris Ruff,Geronimo Navarro,61.96,142.88,86.18,149.69,378.75,Single-ply,SBD,M
Boys,67.13,11,Justin Organ,San Antonio East Central,65.5,142.88,81.65,136.08,360.61,Single-ply,SBD,M
Boys,67.13,12,Walker McCandrew,Universal City Randolph,64.77,122.47,79.38,151.95,353.8,Single-ply,SBD,M
Boys,67.13,13,Chris Mirarchi,Universal City Randolph,62.23,113.4,90.72,140.61,344.73,Single-ply,SBD,M
Boys,67.13,14,Nigel Cardenas,San Antonio Memorial,62.32,113.4,65.77,129.27,308.44,Single-ply,SBD,M
Boys,67.13,15,Jacob Pate,Austin Lake Travis,61.14,102.06,61.23,124.74,288.03,Single-ply,SBD,M
Boys,67.13,DQ,Andrew Harris,San Antonio Southside,67.04,190.51,,,,Single-ply,SBD,M
Boys,67.13,DQ,Chase Brown,Wimberley,67.13,,,,,Single-ply,SBD,M
Boys,67.13,DQ,Colby Fonville,Wimberley,67.13,,,,,Single-ply,SBD,M
Boys,67.13,DQ,Ozzie Valera,Somerset,67.13,,,,,Single-ply,SBD,M
Boys,74.84,1,Dominique Hardaway,Lockhart,73.84,272.16,142.88,272.16,687.19,Single-ply,SBD,M
Boys,74.84,2,Jeff Moreno,Comal Canyon,73.94,233.6,120.2,226.8,580.6,Single-ply,SBD,M
Boys,74.84,3,Peyton Smith #3,Comal Canyon,73.94,188.24,106.59,188.24,483.08,Single-ply,SBD,M
Boys,74.84,4,Clay Flinn,Austin Lake Travis,71.67,181.44,104.33,172.37,458.13,Single-ply,SBD,M
Boys,74.84,5,Vincent Moraida,Buda Hays,71.94,174.63,104.33,163.29,442.25,Single-ply,SBD,M
Boys,74.84,6,Jacob Ritch,San Antonio East Central,69.85,158.76,102.06,179.17,439.98,Single-ply,SBD,M
Boys,74.84,7,Sean Hancock,Geronimo Navarro,73.66,149.69,124.74,149.69,424.11,Single-ply,SBD,M
Boys,74.84,8,Will Perrin,Universal City Randolph,70.58,172.37,77.11,172.37,421.84,Single-ply,SBD,M
Boys,74.84,9,Jon Horrocks,Buda Hays,73.94,147.42,90.72,158.76,396.89,Single-ply,SBD,M
Boys,74.84,10,AJ Rice,Comal Canyon,74.84,145.15,81.65,165.56,392.36,Single-ply,SBD,M
Boys,74.84,11,David Clay,San Antonio East Central,70.03,122.47,77.11,158.76,358.34,Single-ply,SBD,M
Boys,74.84,12,Alden Mann,Wimberley,68.04,117.93,83.91,154.22,356.07,Single-ply,SBD,M
Boys,74.84,13,Taylor Works,Austin Westlake,74.66,102.06,56.7,122.47,281.23,Single-ply,SBD,M
Boys,74.84,DQ,Lonnie Overturf,Comal Canyon,70.31,,,,,Single-ply,SBD,M
Boys,74.84,DQ,Victor Alvarez,San Antonio Memorial,74.84,,,,,Single-ply,SBD,M
Boys,74.84,DQ,Edward Hernandez,San Antonio Memorial,74.84,,,,,Single-ply,SBD,M
Boys,74.84,DQ,Tyler Bloom,Wimberley,74.84,,,,,Single-ply,SBD,M
Boys,74.84,DQ,Del Ryan Alvarez,Somerset,74.84,,,,,Single-ply,SBD,M
Boys,82.1,1,Lawrence Brite,Lockhart,81.83,215.46,185.97,213.19,614.62,Single-ply,SBD,M
Boys,82.1,2,Tyler Stevens,Bandera,77.11,238.14,120.2,219.99,578.33,Single-ply,SBD,M
Boys,82.1,3,Brandon Yates,Comal Canyon,81.65,213.19,140.61,217.72,571.53,Single-ply,SBD,M
Boys,82.1,4,Pablo Nieto,san marcos,78.65,226.8,131.54,210.92,569.26,Single-ply,SBD,M
Boys,82.1,5,Chezz Borneman,Wimberley,81.56,195.04,147.42,197.31,539.77,Single-ply,SBD,M
Boys,82.1,6,Bryce Dunman,Comal Canyon,77.11,217.72,120.2,197.31,535.24,Single-ply,SBD,M
Boys,82.1,7,Dwight Taylor,Somerset,77.11,204.12,102.06,219.99,526.17,Single-ply,SBD,M
Boys,82.1,8,Justin Roberson,San Antonio Southside,79.38,204.12,108.86,170.1,483.08,Single-ply,SBD,M
Boys,82.1,9,Henry Vasquez,San Antonio East Central,80.83,195.04,95.25,176.9,467.2,Single-ply,SBD,M
Boys,82.1,10,Alec Connally,Bandera,75.3,172.37,124.74,165.56,462.66,Single-ply,SBD,M
Boys,82.1,11,Turney Maurer,Austin Lake Travis,80.74,181.44,113.4,167.83,462.66,Single-ply,SBD,M
Boys,82.1,12,Edbriel Manzo,Buda Hays,77.11,156.49,104.33,179.17,439.98,Single-ply,SBD,M
Boys,82.1,13,Andre Hamilton,Universal City Randolph,81.92,172.37,95.25,172.37,439.98,Single-ply,SBD,M
Boys,82.1,14,Shaq Henry,Universal City Randolph,78.47,161.03,90.72,172.37,424.11,Single-ply,SBD,M
Boys,82.1,15,Victor Martinez,Buda Hays,80.65,163.29,108.86,149.69,421.84,Single-ply,SBD,M
Boys,82.1,16,Charlie Mowen,san marcos,80.29,149.69,88.45,151.95,390.09,Single-ply,SBD,M
Boys,82.1,17,Austin Block,Karnes City,80.38,129.27,74.84,136.08,340.19,Single-ply,SBD,M
Boys,82.1,18,Weston Block,Karnes City,79.47,127.01,74.84,136.08,337.93,Single-ply,SBD,M
Boys,82.1,DQ,Linden Reed,Comal Canyon,78.47,217.72,,,,Single-ply,SBD,M
Boys,82.1,DQ,Dylan Bittles,Austin Lake Travis,79.38,,,,,Single-ply,SBD,M
Boys,82.1,DQ,Richard Pena,San Antonio Southside,78.38,156.49,,,,Single-ply,SBD,M
Boys,82.1,DQ,Micah Jones,Universal City Randolph,78.56,117.93,,,,Single-ply,SBD,M
Boys,82.1,DQ,Josh Falcon,San Antonio East Central,79.83,,,,,Single-ply,SBD,M
Boys,82.1,DQ,Daniel Prado,San Antonio Southside,82.1,,,,,Single-ply,SBD,M
Boys,89.81,1,Ian Bell,Comal Canyon,87.54,310.71,156.49,308.44,775.64,Single-ply,SBD,M
Boys,89.81,2,Kory Kuhl,Universal City Randolph,89.81,192.78,108.86,219.99,521.63,Single-ply,SBD,M
Boys,89.81,3,Joe Hernandez #1,San Antonio East Central,89.81,195.04,111.13,188.24,494.42,Single-ply,SBD,M
Boys,89.81,4,Shaquille Marable,Austin Lake Travis,84.64,174.63,102.06,215.46,492.15,Single-ply,SBD,M
Boys,89.81,5,Cody Villarreal,san marcos,89.81,181.44,106.59,181.44,469.47,Single-ply,SBD,M
Boys,89.81,6,Santos Dominguez,San Antonio East Central,89.81,181.44,97.52,190.51,469.47,Single-ply,SBD,M
Boys,89.81,7,Kyle Williams,Buda Hays,88.63,172.37,115.67,167.83,455.86,Single-ply,SBD,M
Boys,89.81,8,Tyler Paulsen,Austin Lake Travis,88.45,161.03,120.2,167.83,449.06,Single-ply,SBD,M
Boys,89.81,9,Zane Zimmerman,Geronimo Navarro,89.81,170.1,108.86,165.56,444.52,Single-ply,SBD,M
Boys,89.81,10,Stephen Wilkes,Austin Lake Travis,87.45,158.76,92.99,181.44,433.18,Single-ply,SBD,M
Boys,89.81,11,Taylor Dean,Geronimo Navarro,89.81,167.83,95.25,158.76,421.84,Single-ply,SBD,M
Boys,89.81,12,Austin Metzger,Universal City Randolph,89.81,149.69,90.72,181.44,421.84,Single-ply,SBD,M
Boys,89.81,13,Kyle Kimery,Austin Westlake,88.27,154.22,79.38,147.42,381.02,Single-ply,SBD,M
Boys,89.81,14,Nick Ringler,Universal City Randolph,89.81,127.01,86.18,156.49,369.68,Single-ply,SBD,M
Boys,89.81,15,Michael Turner,San Antonio East Central,89.81,124.74,90.72,138.35,353.8,Single-ply,SBD,M
Boys,89.81,DQ,Ricky Hernandez,san marcos,89.81,,,,,Single-ply,SBD,M
Boys,89.81,DQ,Jonathan Ramos,San Antonio Southside,89.81,170.1,,,,Single-ply,SBD,M
Boys,89.81,DQ,Jeremy Amberger,Austin Lake Travis,86.18,,,,,Single-ply,SBD,M
Boys,89.81,DQ,Connor Bryne,Austin Westlake,85.28,136.08,,,,Single-ply,SBD,M
Boys,89.81,DQ,John Guerra,Bandera,89.81,,,,,Single-ply,SBD,M
Boys,89.81,DQ,Jerome Hopkins,Karnes City,89.81,,,,,Single-ply,SBD,M
Boys,89.81,DQ,Carrasco Lawrence,Karnes City,89.81,,,,,Single-ply,SBD,M
Boys,89.81,DQ,Casey Benavides,Somerset,89.81,,,,,Single-ply,SBD,M
Boys,99.79,1,Charles Armstrong,Somerset,96.43,238.14,149.69,238.14,625.96,Single-ply,SBD,M
Boys,99.79,2,Salvador Marines,Somerset,97.61,222.26,122.47,249.48,594.21,Single-ply,SBD,M
Boys,99.79,3,Leonard Aranda,Somerset,98.07,231.33,133.81,226.8,591.94,Single-ply,SBD,M
Boys,99.79,4,Deaunder Turner,Lockhart,97.61,210.92,122.47,215.46,548.85,Single-ply,SBD,M
Boys,99.79,5,Karl Greiger,Lockhart,93.17,174.63,142.88,188.24,505.76,Single-ply,SBD,M
Boys,99.79,6,Abe Sanchez,San Antonio East Central,96.52,181.44,108.86,204.12,494.42,Single-ply,SBD,M
Boys,99.79,7,Ian Coleman,Universal City Randolph,99.7,208.65,108.86,167.83,485.34,Single-ply,SBD,M
Boys,99.79,8,Sam Schlanger,Austin Lake Travis,94.98,181.44,115.67,181.44,478.54,Single-ply,SBD,M
Boys,99.79,9,Hector Castillo,San Antonio Memorial,95.07,172.37,106.59,181.44,460.4,Single-ply,SBD,M
Boys,99.79,10,MacNeal Price,San Antonio East Central,93.44,176.9,95.25,185.97,458.13,Single-ply,SBD,M
Boys,99.79,11,Bravyn Hager,Austin Westlake,97.07,154.22,99.79,199.58,453.59,Single-ply,SBD,M
Boys,99.79,12,Wood Updegrove,san marcos,92.53,163.29,106.59,172.37,442.25,Single-ply,SBD,M
Boys,99.79,13,Leron Hutto,san marcos,90.72,163.29,92.99,174.63,430.91,Single-ply,SBD,M
Boys,99.79,14,Chris McCumber,San Antonio East Central,91.72,163.29,90.72,170.1,424.11,Single-ply,SBD,M
Boys,99.79,15,Jenero Jackson,Universal City Randolph,97.79,165.56,83.91,172.37,421.84,Single-ply,SBD,M
Boys,99.79,16,Eric Wassmouth,Austin Westlake,91.44,142.88,90.72,149.69,383.29,Single-ply,SBD,M
Boys,99.79,17,Jacob Jaquez,San Antonio Memorial,91.81,136.08,86.18,151.95,374.21,Single-ply,SBD,M
Boys,99.79,DQ,Cody Brown #8,San Antonio Southside,97.79,,,,,Single-ply,SBD,M
Boys,99.79,DQ,Casey Laney,Austin Lake Travis,92.99,,,,,Single-ply,SBD,M
Boys,99.79,DQ,Steven Perez,Geronimo Navarro,98.43,,,,,Single-ply,SBD,M
Boys,109.77,1,Nick Poole,Buda Hays,104.24,229.06,154.22,238.14,621.42,Single-ply,SBD,M
Boys,109.77,2,Jose Alvarado #4,Somerset,108.23,249.48,124.74,204.12,578.33,Single-ply,SBD,M
Boys,109.77,3,Robert Huitron,San Antonio Southside,105.14,233.6,136.08,204.12,573.79,Single-ply,SBD,M
Boys,109.77,4,Pesina Vincent,Buda Hays,108.41,226.8,122.47,199.58,548.85,Single-ply,SBD,M
Boys,109.77,5,Roman Esparza,Geronimo Navarro,106.68,206.38,102.06,226.8,535.24,Single-ply,SBD,M
Boys,109.77,6,Ricardo Aleman,San Antonio Memorial,103.06,195.04,122.47,201.85,519.36,Single-ply,SBD,M
Boys,109.77,7,Edward Lopez,San Antonio East Central,109.32,206.38,113.4,185.97,505.76,Single-ply,SBD,M
Boys,109.77,8,Cole Callaway,Universal City Randolph,104.87,181.44,136.08,167.83,485.34,Single-ply,SBD,M
Boys,109.77,9,Jacob Wassmouth,Austin Westlake,108.32,158.76,49.9,163.29,371.95,Single-ply,SBD,M
Boys,109.77,10,Lucas Janysek,Karnes City,107.05,115.67,81.65,147.42,344.73,Single-ply,SBD,M
Boys,109.77,DQ,Xavier Lopez,San Antonio Memorial,109.77,,,,,Single-ply,SBD,M
Boys,109.77,DQ,Abel Gonzales,San Antonio Memorial,102.06,,,,,Single-ply,SBD,M
Boys,109.77,DQ,Daniel Chavez,San Antonio Memorial,102.06,,,,,Single-ply,SBD,M
Boys,109.77,DQ,Liam Murphy,Universal City Randolph,106.5,181.44,,,,Single-ply,SBD,M
Boys,124.74,1,Brandon Rodriguez #4,Somerset,120.47,294.84,170.1,251.74,716.68,Single-ply,SBD,M
Boys,124.74,2,Albert Mata #3,San Antonio Southside,116.75,272.16,158.76,229.06,659.98,Single-ply,SBD,M
Boys,124.74,3,Reynaldo Medina,San Antonio Southside,114.76,272.16,158.76,217.72,648.64,Single-ply,SBD,M
Boys,124.74,4,William Cavanaugh,Comal Canyon,122.47,258.55,154.22,226.8,639.57,Single-ply,SBD,M
Boys,124.74,5,Alfred Godines,Somerset,110.95,244.94,167.83,204.12,616.89,Single-ply,SBD,M
Boys,124.74,6,Neal White,Austin Lake Travis,121.56,219.99,117.93,226.8,564.72,Single-ply,SBD,M
Boys,124.74,7,Tyler Jones #6,Austin Westlake,112.58,238.14,102.06,204.12,544.31,Single-ply,SBD,M
Boys,124.74,8,Andrew Tercek,San Antonio East Central,111.22,188.24,113.4,190.51,492.15,Single-ply,SBD,M
Boys,124.74,9,Michael Warmke,Comal Canyon,123.83,188.24,104.33,183.7,476.27,Single-ply,SBD,M
Boys,124.74,10,Izzy Perez,Karnes City,120.2,154.22,97.52,181.44,433.18,Single-ply,SBD,M
Boys,124.74,11,Sean O'Farrell,Austin Westlake,110.95,154.22,90.72,142.88,387.82,Single-ply,SBD,M
Boys,124.74,12,Garrett Willis,Austin Westlake,116.39,77.11,45.36,124.74,247.21,Single-ply,SBD,M
Boys,124.74,DQ,Joseph Jarke,Austin Westlake,117.93,,,,,Single-ply,SBD,M
Boys,124.74,DQ,Angel Garza,Somerset,124.74,,,,,Single-ply,SBD,M
Boys,124.74+,1,Dion Turner,Lockhart,132.54,256.28,201.85,242.67,700.8,Single-ply,SBD,M
Boys,124.74+,2,Owen Rathburn,Comal Canyon,126.1,265.35,163.29,242.67,671.32,Single-ply,SBD,M
Boys,124.74+,3,Vicente Juarez,Geronimo Navarro,126.1,242.67,145.15,215.46,603.28,Single-ply,SBD,M
Boys,124.74+,4,Abraham Jimenez,Somerset,137.21,240.4,133.81,190.51,564.72,Single-ply,SBD,M
Boys,124.74+,5,Joseph Barkley,Karnes City,129.27,206.38,117.93,235.87,560.19,Single-ply,SBD,M
Boys,124.74+,6,Zack Pawelek,Karnes City,145.15,204.12,111.13,204.12,519.36,Single-ply,SBD,M
Boys,124.74+,7,Mark Alarcon,San Antonio East Central,132.81,213.19,111.13,190.51,514.83,Single-ply,SBD,M
Boys,124.74+,8,Reagan Womack,Austin Lake Travis,125.83,161.03,111.13,158.76,430.91,Single-ply,SBD,M
Boys,124.74+,DQ,Josh Foster,Lockhart,136.08,,,,,Single-ply,SBD,M
